<svg xmlns="http://www.w3.org/2000/svg" width="41.553" height="8.912">
  <g fill="none" stroke="currentColor" stroke-width="2">
    <path d="M0 4.456h40.085"/>
    <path d="m36.08.733 4.005 3.724L36.08 8.18"/>
  </g>
</svg>
