<?xml version="1.0" encoding="UTF-8"?>
<svg width="218px" height="300px" xmlns="http://www.w3.org/2000/svg" xmlns:xlink="http://www.w3.org/1999/xlink" version="1.1" id="Ebene_1" x="0px" y="0px" viewBox="0 0 103.99 142.18" style="enable-background:new 0 0 103.99 142.18;" xml:space="preserve">
<style type="text/css">
	.st0{fill:#FFFFFF;}
</style>
<g>
	<path fill="#FFFFFF" d="M69.13,41.32c-11.36,0-19.97,1.56-27.42,6.66c-7.64,5.88-10.77,18.8-14.3,27.81l-4.9-1.96c3.53-9.01,8.42-20.37,8.42-29.96   V0H0v142.18h30.94V97.33c0-16.84,10.96-24.48,24.29-24.48c12.14,0,17.82,7.44,17.82,24.48v44.84h30.94V75.01   C103.99,52.68,88.91,41.32,69.13,41.32"></path>
</g>
</svg>
